simulation/qsim/exp5.msim.vcd
$comment
	File created using the following command:
		vcd file exp5.msim.vcd -direction
$end
$date
	Thu May 11 22:26:49 2023
$end
$version
	ModelSim Version 10.1d
$end
$timescale
	1ps
$end
$scope module exp5_vlg_vec_tst $end
$var reg 4 ! KEY_R [3:0] $end
$var reg 2 " M [1:0] $end
$var reg 2 # RA [1:0] $end
$var reg 1 $ clk $end
$var reg 1 % clr $end
$var reg 1 & key_clr $end
$var reg 1 ' rd $end
$var reg 1 ( wr $end
$var wire 1 ) KEY_C [3] $end
$var wire 1 * KEY_C [2] $end
$var wire 1 + KEY_C [1] $end
$var wire 1 , KEY_C [0] $end
$var wire 1 - N [31] $end
$var wire 1 . N [30] $end
$var wire 1 / N [29] $end
$var wire 1 0 N [28] $end
$var wire 1 1 N [27] $end
$var wire 1 2 N [26] $end
$var wire 1 3 N [25] $end
$var wire 1 4 N [24] $end
$var wire 1 5 N [23] $end
$var wire 1 6 N [22] $end
$var wire 1 7 N [21] $end
$var wire 1 8 N [20] $end
$var wire 1 9 N [19] $end
$var wire 1 : N [18] $end
$var wire 1 ; N [17] $end
$var wire 1 < N [16] $end
$var wire 1 = N [15] $end
$var wire 1 > N [14] $end
$var wire 1 ? N [13] $end
$var wire 1 @ N [12] $end
$var wire 1 A N [11] $end
$var wire 1 B N [10] $end
$var wire 1 C N [9] $end
$var wire 1 D N [8] $end
$var wire 1 E N [7] $end
$var wire 1 F N [6] $end
$var wire 1 G N [5] $end
$var wire 1 H N [4] $end
$var wire 1 I N [3] $end
$var wire 1 J N [2] $end
$var wire 1 K N [1] $end
$var wire 1 L N [0] $end
$var wire 1 M PC [7] $end
$var wire 1 N PC [6] $end
$var wire 1 O PC [5] $end
$var wire 1 P PC [4] $end
$var wire 1 Q PC [3] $end
$var wire 1 R PC [2] $end
$var wire 1 S PC [1] $end
$var wire 1 T PC [0] $end
$var wire 1 U R0 [7] $end
$var wire 1 V R0 [6] $end
$var wire 1 W R0 [5] $end
$var wire 1 X R0 [4] $end
$var wire 1 Y R0 [3] $end
$var wire 1 Z R0 [2] $end
$var wire 1 [ R0 [1] $end
$var wire 1 \ R0 [0] $end
$var wire 1 ] R1 [7] $end
$var wire 1 ^ R1 [6] $end
$var wire 1 _ R1 [5] $end
$var wire 1 ` R1 [4] $end
$var wire 1 a R1 [3] $end
$var wire 1 b R1 [2] $end
$var wire 1 c R1 [1] $end
$var wire 1 d R1 [0] $end
$var wire 1 e R2 [7] $end
$var wire 1 f R2 [6] $end
$var wire 1 g R2 [5] $end
$var wire 1 h R2 [4] $end
$var wire 1 i R2 [3] $end
$var wire 1 j R2 [2] $end
$var wire 1 k R2 [1] $end
$var wire 1 l R2 [0] $end
$var wire 1 m R3 [7] $end
$var wire 1 n R3 [6] $end
$var wire 1 o R3 [5] $end
$var wire 1 p R3 [4] $end
$var wire 1 q R3 [3] $end
$var wire 1 r R3 [2] $end
$var wire 1 s R3 [1] $end
$var wire 1 t R3 [0] $end
$var wire 1 u codeout [7] $end
$var wire 1 v codeout [6] $end
$var wire 1 w codeout [5] $end
$var wire 1 x codeout [4] $end
$var wire 1 y codeout [3] $end
$var wire 1 z codeout [2] $end
$var wire 1 { codeout [1] $end
$var wire 1 | codeout [0] $end
$var wire 1 } sel [2] $end
$var wire 1 ~ sel [1] $end
$var wire 1 !! sel [0] $end
$var wire 1 "! sampler $end
$scope module i1 $end
$var wire 1 #! gnd $end
$var wire 1 $! vcc $end
$var wire 1 %! unknown $end
$var tri1 1 &! devclrn $end
$var tri1 1 '! devpor $end
$var tri1 1 (! devoe $end
$var wire 1 )! KEY_C[0]~output_o $end
$var wire 1 *! KEY_C[1]~output_o $end
$var wire 1 +! KEY_C[2]~output_o $end
$var wire 1 ,! KEY_C[3]~output_o $end
$var wire 1 -! R0[0]~output_o $end
$var wire 1 .! R0[1]~output_o $end
$var wire 1 /! R0[2]~output_o $end
$var wire 1 0! R0[3]~output_o $end
$var wire 1 1! R0[4]~output_o $end
$var wire 1 2! R0[5]~output_o $end
$var wire 1 3! R0[6]~output_o $end
$var wire 1 4! R0[7]~output_o $end
$var wire 1 5! R1[0]~output_o $end
$var wire 1 6! R1[1]~output_o $end
$var wire 1 7! R1[2]~output_o $end
$var wire 1 8! R1[3]~output_o $end
$var wire 1 9! R1[4]~output_o $end
$var wire 1 :! R1[5]~output_o $end
$var wire 1 ;! R1[6]~output_o $end
$var wire 1 <! R1[7]~output_o $end
$var wire 1 =! R2[0]~output_o $end
$var wire 1 >! R2[1]~output_o $end
$var wire 1 ?! R2[2]~output_o $end
$var wire 1 @! R2[3]~output_o $end
$var wire 1 A! R2[4]~output_o $end
$var wire 1 B! R2[5]~output_o $end
$var wire 1 C! R2[6]~output_o $end
$var wire 1 D! R2[7]~output_o $end
$var wire 1 E! R3[0]~output_o $end
$var wire 1 F! R3[1]~output_o $end
$var wire 1 G! R3[2]~output_o $end
$var wire 1 H! R3[3]~output_o $end
$var wire 1 I! R3[4]~output_o $end
$var wire 1 J! R3[5]~output_o $end
$var wire 1 K! R3[6]~output_o $end
$var wire 1 L! R3[7]~output_o $end
$var wire 1 M! PC[0]~output_o $end
$var wire 1 N! PC[1]~output_o $end
$var wire 1 O! PC[2]~output_o $end
$var wire 1 P! PC[3]~output_o $end
$var wire 1 Q! PC[4]~output_o $end
$var wire 1 R! PC[5]~output_o $end
$var wire 1 S! PC[6]~output_o $end
$var wire 1 T! PC[7]~output_o $end
$var wire 1 U! sel[0]~output_o $end
$var wire 1 V! sel[1]~output_o $end
$var wire 1 W! sel[2]~output_o $end
$var wire 1 X! N[0]~output_o $end
$var wire 1 Y! N[1]~output_o $end
$var wire 1 Z! N[2]~output_o $end
$var wire 1 [! N[3]~output_o $end
$var wire 1 \! N[4]~output_o $end
$var wire 1 ]! N[5]~output_o $end
$var wire 1 ^! N[6]~output_o $end
$var wire 1 _! N[7]~output_o $end
$var wire 1 `! N[8]~output_o $end
$var wire 1 a! N[9]~output_o $end
$var wire 1 b! N[10]~output_o $end
$var wire 1 c! N[11]~output_o $end
$var wire 1 d! N[12]~output_o $end
$var wire 1 e! N[13]~output_o $end
$var wire 1 f! N[14]~output_o $end
$var wire 1 g! N[15]~output_o $end
$var wire 1 h! N[16]~output_o $end
$var wire 1 i! N[17]~output_o $end
$var wire 1 j! N[18]~output_o $end
$var wire 1 k! N[19]~output_o $end
$var wire 1 l! N[20]~output_o $end
$var wire 1 m! N[21]~output_o $end
$var wire 1 n! N[22]~output_o $end
$var wire 1 o! N[23]~output_o $end
$var wire 1 p! N[24]~output_o $end
$var wire 1 q! N[25]~output_o $end
$var wire 1 r! N[26]~output_o $end
$var wire 1 s! N[27]~output_o $end
$var wire 1 t! N[28]~output_o $end
$var wire 1 u! N[29]~output_o $end
$var wire 1 v! N[30]~output_o $end
$var wire 1 w! N[31]~output_o $end
$var wire 1 x! codeout[0]~output_o $end
$var wire 1 y! codeout[1]~output_o $end
$var wire 1 z! codeout[2]~output_o $end
$var wire 1 {! codeout[3]~output_o $end
$var wire 1 |! codeout[4]~output_o $end
$var wire 1 }! codeout[5]~output_o $end
$var wire 1 ~! codeout[6]~output_o $end
$var wire 1 !" codeout[7]~output_o $end
$var wire 1 "" clk~input_o $end
$var wire 1 #" clk~inputclkctrl_outclk $end
$var wire 1 $" km|cnt[0]~1_combout $end
$var wire 1 %" key_clr~input_o $end
$var wire 1 &" km|cnt[1]~0_combout $end
$var wire 1 '" km|Decoder0~0_combout $end
$var wire 1 (" km|Decoder0~1_combout $end
$var wire 1 )" km|Decoder0~2_combout $end
$var wire 1 *" km|Decoder0~3_combout $end
$var wire 1 +" KEY_R[2]~input_o $end
$var wire 1 ," KEY_R[1]~input_o $end
$var wire 1 -" KEY_R[0]~input_o $end
$var wire 1 ." KEY_R[3]~input_o $end
$var wire 1 /" km|Equal0~0_combout $end
$var wire 1 0" km|num~0_combout $end
$var wire 1 1" km|Selector3~3_combout $end
$var wire 1 2" km|Selector3~5_combout $end
$var wire 1 3" km|Selector3~6_combout $end
$var wire 1 4" km|Selector3~7_combout $end
$var wire 1 5" km|Selector3~2_combout $end
$var wire 1 6" km|Selector3~8_combout $end
$var wire 1 7" km|out~0_combout $end
$var wire 1 8" km|out[1]~1_combout $end
$var wire 1 9" rf|R0[0]~feeder_combout $end
$var wire 1 :" RA[0]~input_o $end
$var wire 1 ;" wr~input_o $end
$var wire 1 <" rd~input_o $end
$var wire 1 =" RA[1]~input_o $end
$var wire 1 >" rf|Decoder0~0_combout $end
$var wire 1 ?" km|num~1_combout $end
$var wire 1 @" km|Selector2~2_combout $end
$var wire 1 A" km|Selector2~3_combout $end
$var wire 1 B" km|Selector2~4_combout $end
$var wire 1 C" km|out~2_combout $end
$var wire 1 D" rf|R0[1]~feeder_combout $end
$var wire 1 E" km|num~2_combout $end
$var wire 1 F" km|Selector1~2_combout $end
$var wire 1 G" km|Selector1~3_combout $end
$var wire 1 H" km|Selector1~4_combout $end
$var wire 1 I" km|out~3_combout $end
$var wire 1 J" rf|R0[2]~feeder_combout $end
$var wire 1 K" km|Selector3~4_combout $end
$var wire 1 L" km|num~3_combout $end
$var wire 1 M" km|Selector0~0_combout $end
$var wire 1 N" km|Selector0~1_combout $end
$var wire 1 O" km|Selector0~2_combout $end
$var wire 1 P" km|out~4_combout $end
$var wire 1 Q" rf|R0[3]~feeder_combout $end
$var wire 1 R" km|out~5_combout $end
$var wire 1 S" rf|R0[4]~feeder_combout $end
$var wire 1 T" km|out~6_combout $end
$var wire 1 U" rf|R0[5]~feeder_combout $end
$var wire 1 V" km|out~7_combout $end
$var wire 1 W" rf|R0[6]~feeder_combout $end
$var wire 1 X" km|out~8_combout $end
$var wire 1 Y" rf|R0[7]~feeder_combout $end
$var wire 1 Z" rf|R1[0]~feeder_combout $end
$var wire 1 [" rf|Decoder0~1_combout $end
$var wire 1 \" rf|R1[1]~feeder_combout $end
$var wire 1 ]" rf|R1[2]~feeder_combout $end
$var wire 1 ^" rf|R1[3]~feeder_combout $end
$var wire 1 _" rf|R1[4]~feeder_combout $end
$var wire 1 `" rf|R1[5]~feeder_combout $end
$var wire 1 a" rf|R1[6]~feeder_combout $end
$var wire 1 b" rf|R1[7]~feeder_combout $end
$var wire 1 c" rf|R2[0]~feeder_combout $end
$var wire 1 d" rf|Decoder0~2_combout $end
$var wire 1 e" rf|R2[1]~feeder_combout $end
$var wire 1 f" rf|R2[2]~feeder_combout $end
$var wire 1 g" rf|R2[3]~feeder_combout $end
$var wire 1 h" rf|R2[4]~feeder_combout $end
$var wire 1 i" rf|R2[5]~feeder_combout $end
$var wire 1 j" rf|R2[6]~feeder_combout $end
$var wire 1 k" rf|R2[7]~feeder_combout $end
$var wire 1 l" rf|R3[0]~feeder_combout $end
$var wire 1 m" rf|Decoder0~3_combout $end
$var wire 1 n" rf|R3[1]~feeder_combout $end
$var wire 1 o" rf|R3[2]~feeder_combout $end
$var wire 1 p" rf|R3[3]~feeder_combout $end
$var wire 1 q" rf|R3[4]~feeder_combout $end
$var wire 1 r" rf|R3[5]~feeder_combout $end
$var wire 1 s" rf|R3[6]~feeder_combout $end
$var wire 1 t" rf|R3[7]~feeder_combout $end
$var wire 1 u" M[1]~input_o $end
$var wire 1 v" M[0]~input_o $end
$var wire 1 w" pf|Add1~0_combout $end
$var wire 1 x" pf|PC[0]~8_combout $end
$var wire 1 y" clr~input_o $end
$var wire 1 z" pf|Add1~1_combout $end
$var wire 1 {" pf|PC[0]~9 $end
$var wire 1 |" pf|PC[1]~10_combout $end
$var wire 1 }" pf|PC[1]~11 $end
$var wire 1 ~" pf|PC[2]~12_combout $end
$var wire 1 !# pf|PC[2]~13 $end
$var wire 1 "# pf|PC[3]~14_combout $end
$var wire 1 ## pf|PC[3]~15 $end
$var wire 1 $# pf|PC[4]~16_combout $end
$var wire 1 %# pf|PC[4]~17 $end
$var wire 1 &# pf|PC[5]~18_combout $end
$var wire 1 '# pf|PC[5]~19 $end
$var wire 1 (# pf|PC[6]~20_combout $end
$var wire 1 )# pf|PC[6]~21 $end
$var wire 1 *# pf|PC[7]~22_combout $end
$var wire 1 +# sd|sel[0]~2_combout $end
$var wire 1 ,# sd|sel[1]~0_combout $end
$var wire 1 -# sd|sel[2]~1_combout $end
$var wire 1 .# rf|Mux7~0_combout $end
$var wire 1 /# rf|Mux7~1_combout $end
$var wire 1 0# rf|Mux6~0_combout $end
$var wire 1 1# rf|Mux6~1_combout $end
$var wire 1 2# rf|Mux5~0_combout $end
$var wire 1 3# rf|Mux5~1_combout $end
$var wire 1 4# rf|Mux4~0_combout $end
$var wire 1 5# rf|Mux4~1_combout $end
$var wire 1 6# rf|Mux3~0_combout $end
$var wire 1 7# rf|Mux3~1_combout $end
$var wire 1 8# rf|Mux2~0_combout $end
$var wire 1 9# rf|Mux2~1_combout $end
$var wire 1 :# rf|Mux1~0_combout $end
$var wire 1 ;# rf|Mux1~1_combout $end
$var wire 1 <# rf|Mux0~0_combout $end
$var wire 1 =# rf|Mux0~1_combout $end
$var wire 1 ># sd|num[3]~0_combout $end
$var wire 1 ?# sd|Mux2~0_combout $end
$var wire 1 @# sd|Mux2~1_combout $end
$var wire 1 A# sd|Mux2~2_combout $end
$var wire 1 B# sd|Mux3~0_combout $end
$var wire 1 C# sd|Mux3~1_combout $end
$var wire 1 D# sd|Mux3~2_combout $end
$var wire 1 E# sd|Mux1~0_combout $end
$var wire 1 F# sd|Mux1~1_combout $end
$var wire 1 G# sd|Mux1~2_combout $end
$var wire 1 H# sd|Mux0~0_combout $end
$var wire 1 I# sd|Mux0~1_combout $end
$var wire 1 J# sd|Mux0~2_combout $end
$var wire 1 K# sd|WideOr6~0_combout $end
$var wire 1 L# sd|WideOr5~0_combout $end
$var wire 1 M# sd|WideOr4~0_combout $end
$var wire 1 N# sd|WideOr3~0_combout $end
$var wire 1 O# sd|WideOr2~0_combout $end
$var wire 1 P# sd|WideOr1~0_combout $end
$var wire 1 Q# sd|WideOr0~0_combout $end
$var wire 1 R# rf|R3 [7] $end
$var wire 1 S# rf|R3 [6] $end
$var wire 1 T# rf|R3 [5] $end
$var wire 1 U# rf|R3 [4] $end
$var wire 1 V# rf|R3 [3] $end
$var wire 1 W# rf|R3 [2] $end
$var wire 1 X# rf|R3 [1] $end
$var wire 1 Y# rf|R3 [0] $end
$var wire 1 Z# sd|sel [2] $end
$var wire 1 [# sd|sel [1] $end
$var wire 1 \# sd|sel [0] $end
$var wire 1 ]# km|out [7] $end
$var wire 1 ^# km|out [6] $end
$var wire 1 _# km|out [5] $end
$var wire 1 `# km|out [4] $end
$var wire 1 a# km|out [3] $end
$var wire 1 b# km|out [2] $end
$var wire 1 c# km|out [1] $end
$var wire 1 d# km|out [0] $end
$var wire 1 e# rf|X [7] $end
$var wire 1 f# rf|X [6] $end
$var wire 1 g# rf|X [5] $end
$var wire 1 h# rf|X [4] $end
$var wire 1 i# rf|X [3] $end
$var wire 1 j# rf|X [2] $end
$var wire 1 k# rf|X [1] $end
$var wire 1 l# rf|X [0] $end
$var wire 1 m# km|num [4] $end
$var wire 1 n# km|num [3] $end
$var wire 1 o# km|num [2] $end
$var wire 1 p# km|num [1] $end
$var wire 1 q# km|num [0] $end
$var wire 1 r# km|KEY_C [3] $end
$var wire 1 s# km|KEY_C [2] $end
$var wire 1 t# km|KEY_C [1] $end
$var wire 1 u# km|KEY_C [0] $end
$var wire 1 v# km|cnt [1] $end
$var wire 1 w# km|cnt [0] $end
$var wire 1 x# rf|R1 [7] $end
$var wire 1 y# rf|R1 [6] $end
$var wire 1 z# rf|R1 [5] $end
$var wire 1 {# rf|R1 [4] $end
$var wire 1 |# rf|R1 [3] $end
$var wire 1 }# rf|R1 [2] $end
$var wire 1 ~# rf|R1 [1] $end
$var wire 1 !$ rf|R1 [0] $end
$var wire 1 "$ rf|R2 [7] $end
$var wire 1 #$ rf|R2 [6] $end
$var wire 1 $$ rf|R2 [5] $end
$var wire 1 %$ rf|R2 [4] $end
$var wire 1 &$ rf|R2 [3] $end
$var wire 1 '$ rf|R2 [2] $end
$var wire 1 ($ rf|R2 [1] $end
$var wire 1 )$ rf|R2 [0] $end
$var wire 1 *$ pf|Y [7] $end
$var wire 1 +$ pf|Y [6] $end
$var wire 1 ,$ pf|Y [5] $end
$var wire 1 -$ pf|Y [4] $end
$var wire 1 .$ pf|Y [3] $end
$var wire 1 /$ pf|Y [2] $end
$var wire 1 0$ pf|Y [1] $end
$var wire 1 1$ pf|Y [0] $end
$var wire 1 2$ pf|PC [7] $end
$var wire 1 3$ pf|PC [6] $end
$var wire 1 4$ pf|PC [5] $end
$var wire 1 5$ pf|PC [4] $end
$var wire 1 6$ pf|PC [3] $end
$var wire 1 7$ pf|PC [2] $end
$var wire 1 8$ pf|PC [1] $end
$var wire 1 9$ pf|PC [0] $end
$var wire 1 :$ sd|num [3] $end
$var wire 1 ;$ sd|num [2] $end
$var wire 1 <$ sd|num [1] $end
$var wire 1 =$ sd|num [0] $end
$var wire 1 >$ rf|R0 [7] $end
$var wire 1 ?$ rf|R0 [6] $end
$var wire 1 @$ rf|R0 [5] $end
$var wire 1 A$ rf|R0 [4] $end
$var wire 1 B$ rf|R0 [3] $end
$var wire 1 C$ rf|R0 [2] $end
$var wire 1 D$ rf|R0 [1] $end
$var wire 1 E$ rf|R0 [0] $end
$upscope $end
$upscope $end
$enddefinitions $end
#0
$dumpvars
b1111 !
b0 "
b0 #
0$
0%
0&
1'
0(
0,
0+
0*
0)
0L
0K
0J
0I
0H
0G
0F
0E
0D
0C
0B
0A
0@
0?
0>
0=
0<
0;
0:
09
08
07
06
05
04
03
02
01
00
0/
0.
0-
0T
0S
0R
0Q
0P
0O
0N
0M
0\
0[
0Z
0Y
0X
0W
0V
0U
0d
0c
0b
0a
0`
0_
0^
0]
0l
0k
0j
0i
0h
0g
0f
0e
0t
0s
0r
0q
0p
0o
0n
0m
1|
1{
1z
1y
1x
1w
0v
0u
0!!
0~
0}
x"!
0#!
1$!
x%!
1&!
1'!
1(!
0)!
0*!
0+!
0,!
0-!
0.!
0/!
00!
01!
02!
03!
04!
05!
06!
07!
08!
09!
0:!
0;!
0<!
0=!
0>!
0?!
0@!
0A!
0B!
0C!
0D!
0E!
0F!
0G!
0H!
0I!
0J!
0K!
0L!
0M!
0N!
0O!
0P!
0Q!
0R!
0S!
0T!
0U!
0V!
0W!
0X!
0Y!
0Z!
0[!
0\!
0]!
0^!
0_!
0`!
0a!
0b!
0c!
0d!
0e!
0f!
0g!
0h!
0i!
0j!
0k!
0l!
0m!
0n!
0o!
0p!
0q!
0r!
0s!
0t!
0u!
0v!
0w!
1x!
1y!
1z!
1{!
1|!
1}!
0~!
0!"
0""
0#"
1$"
0%"
0&"
1'"
0("
1)"
1*"
1+"
1,"
1-"
1."
1/"
00"
11"
12"
13"
14"
15"
06"
07"
08"
09"
0:"
0;"
1<"
0="
1>"
0?"
1@"
1A"
0B"
0C"
0D"
0E"
1F"
0G"
0H"
0I"
0J"
1K"
0L"
0M"
0N"
0O"
0P"
0Q"
0R"
0S"
0T"
0U"
0V"
0W"
0X"
0Y"
0Z"
0["
0\"
0]"
0^"
0_"
0`"
0a"
0b"
0c"
0d"
0e"
0f"
0g"
0h"
0i"
0j"
0k"
0l"
0m"
0n"
0o"
0p"
0q"
0r"
0s"
0t"
0u"
0v"
0w"
1x"
0y"
0z"
0{"
0|"
1}"
0~"
0!#
0"#
1##
0$#
0%#
0&#
1'#
0(#
0)#
0*#
1+#
0,#
0-#
0.#
0/#
00#
01#
02#
03#
04#
05#
06#
07#
08#
09#
0:#
0;#
0<#
0=#
0>#
0?#
0@#
0A#
0B#
0C#
0D#
0E#
0F#
0G#
0H#
0I#
0J#
0K#
0L#
0M#
0N#
0O#
0P#
0Q#
0Y#
0X#
0W#
0V#
0U#
0T#
0S#
0R#
0\#
0[#
0Z#
0d#
0c#
0b#
0a#
0`#
0_#
0^#
0]#
0l#
0k#
0j#
0i#
0h#
0g#
0f#
0e#
0q#
0p#
0o#
0n#
zm#
0u#
0t#
0s#
0r#
0w#
0v#
0!$
0~#
0}#
0|#
0{#
0z#
0y#
0x#
0)$
0($
0'$
0&$
0%$
0$$
0#$
0"$
01$
00$
0/$
0.$
0-$
0,$
0+$
0*$
09$
08$
07$
06$
05$
04$
03$
02$
0=$
0<$
0;$
0:$
0E$
0D$
0C$
0B$
0A$
0@$
0?$
0>$
$end
#10000
b111 !
0."
0"!
0A"
05"
02"
0/"
04"
03"
18"
#20000
1$
1""
1#"
1"!
1w#
1\#
1r#
1s#
1u#
0)"
1("
1&"
0$"
1,#
0+#
1N"
1A"
0@"
14"
01"
0F"
13"
1U!
1,!
1+!
1)!
1!!
1)
1*
1,
1B"
0K"
04"
1C"
1?"
16"
17"
10"
#30000
b1111 !
1."
0"!
1M"
1G"
15"
12"
1/"
1O"
1K"
0B"
06"
14"
03"
0?"
08"
00"
1P"
0M"
0C"
07"
04"
0O"
0P"
#40000
0$
0""
0#"
1"!
19$
1{"
0x"
1M!
1T
1|"
#50000
b1011 !
0+"
0"!
05"
13"
0/"
0K"
1H"
1B"
16"
14"
18"
1I"
1E"
1C"
1?"
17"
10"
06"
07"
00"
#60000
1$
1""
1#"
1"!
1b#
1o#
1c#
1p#
1v#
0w#
1[#
0\#
0s#
1t#
1o"
1f"
1]"
1V"
1J"
1n"
1e"
1\"
1T"
1D"
0*"
1)"
1$"
1+#
0N"
0A"
03"
1O"
1V!
0U!
0+!
1*!
1~
0!!
0*
1+
0O"
0B"
04"
1P"
1L"
0P"
0L"
0C"
0?"
16"
17"
10"
#70000
b1111 !
1+"
0"!
1M"
1F"
1@"
15"
13"
1/"
0G"
1K"
1B"
06"
14"
0E"
08"
00"
1O"
0M"
1C"
07"
1P"
0O"
0P"
#80000
0$
0""
0#"
1"!
1D$
1C$
09$
18$
11$
10#
12#
0{"
1x"
0}"
0|"
1B#
1.!
1/!
0M!
1N!
1X!
1[
1Z
0T
1S
1L
11#
13#
1}"
1|"
1~"
1C#
0~"
#90000
b1101 !
0,"
0"!
05"
02"
0/"
0K"
0H"
0B"
04"
03"
1E"
1?"
18"
1M"
0I"
0E"
0C"
0?"
16"
14"
1N"
17"
10"
06"
1O"
07"
00"
1P"
1L"
#100000
1$
1""
1#"
1"!
1^#
1_#
1a#
1n#
0b#
0o#
0c#
0p#
1w#
1\#
0r#
1s#
1s"
1j"
1a"
1W"
1r"
1i"
1`"
1U"
1p"
1g"
1^"
1X"
1Q"
0o"
0f"
0]"
0V"
0J"
0n"
0e"
0\"
0T"
0D"
1*"
0'"
0&"
0$"
1>#
1-#
0,#
0+#
0N"
1G"
1A"
04"
0F"
1U!
0,!
1+!
1!!
0)
1*
1E#
0B#
1?#
0O"
1H"
1B"
16"
0C#
0P"
0L"
1I"
1E"
1C"
1?"
17"
10"
#110000
b1111 !
1,"
0"!
1N"
15"
12"
1/"
1O"
1K"
0H"
0B"
06"
14"
0E"
0?"
08"
00"
1P"
0I"
0C"
07"
#120000
0$
0""
0#"
1"!
0D$
0C$
1B$
1@$
1?$
19$
01$
10$
1k#
1j#
00#
02#
14#
18#
1:#
1{"
0x"
0.!
0/!
10!
12!
13!
1M!
0X!
1Y!
1q!
1r!
0[
0Z
1Y
1W
1V
1T
0L
1K
13
12
01#
03#
15#
19#
1;#
0}"
0|"
1~"
#130000
b1110 !
0-"
0"!
05"
0/"
0K"
1H"
1B"
1L"
18"
1I"
1E"
1C"
1?"
#140000
1$
1""
1#"
1"!
1]#
0^#
0_#
1b#
1o#
1c#
1p#
0v#
0w#
1Z#
0[#
0\#
1r#
0u#
1t"
1k"
1b"
1Y"
0s"
0j"
0a"
0W"
0r"
0i"
0`"
0U"
1o"
1f"
1]"
1V"
1J"
1n"
1e"
1\"
1T"
1D"
0("
1'"
1$"
1H#
0E#
1B#
0?#
1+#
0A"
04"
1W!
0V!
0U!
1,!
0)!
1}
0~
0!!
1)
0,
0B"
16"
0C"
0?"
17"
10"
#150000
b1111 !
1-"
0"!
15"
1/"
1K"
1B"
06"
0L"
0E"
08"
00"
1C"
07"
#160000
0$
0""
0#"
1"!
1D$
1C$
0@$
0?$
1>$
09$
08$
17$
11$
0k#
0j#
1i#
1g#
1f#
10#
12#
08#
0:#
1<#
0{"
1x"
1}"
1|"
1!#
0~"
1.!
1/!
02!
03!
14!
0M!
0N!
1O!
1X!
0q!
0r!
1s!
1u!
1v!
1[
1Z
0W
0V
1U
0T
0S
1R
1L
03
02
11
1/
1.
11#
13#
09#
0;#
1=#
0|"
0!#
1~"
1"#
0"#
#170000
b1 #
1:"
0"!
0=#
0<#
05#
04#
02#
01#
00#
1["
0>"
03#
#180000
1$
1""
1#"
1"!
0n#
0o#
0p#
1w#
1\#
0t#
1u#
0M"
0H"
0B"
0)"
1("
1&"
0$"
1,#
0+#
0@"
1U!
0*!
1)!
1!!
0+
1,
0O"
0I"
0C"
1A"
0P"
#200000
0$
0""
0#"
0"!
1~#
1}#
1|#
1x#
19$
01$
00$
1/$
0i#
0g#
0f#
11#
12#
15#
1=#
1{"
0x"
16!
17!
18!
1<!
1M!
0X!
0Y!
1Z!
0s!
0u!
0v!
1c
1b
1a
1]
1T
0L
0K
1J
01
0/
0.
13#
1|"
#220000
1$
1""
1#"
1"!
1v#
0w#
1[#
0\#
0s#
1t#
0*"
1)"
1$"
1I#
0H#
1E#
1C#
0B#
1?#
0>#
1+#
0N"
1F"
0A"
13"
1@"
1V!
0U!
0+!
1*!
1~
0!!
0*
1+
1J#
0I#
1F#
1D#
0C#
1@#
0?#
0G"
14"
0J#
1G#
0D#
1A#
0@#
0A#
#240000
0$
0""
0#"
0"!
09$
18$
11$
1k#
1j#
1i#
1e#
0{"
1x"
0}"
0|"
1B#
0M!
1N!
1X!
1q!
1r!
1s!
1w!
0T
1S
1L
13
12
11
1-
1}"
1|"
1!#
0~"
1C#
0!#
1~"
1"#
1D#
0"#
#250000
b1 "
1v"
1"!
1z"
1*#
1(#
1&#
1$#
1"#
1!#
0~"
0}"
0|"
0##
0"#
1~"
1%#
0$#
0'#
0&#
1)#
0(#
0*#
#260000
1$
1""
1#"
0"!
1;$
1=$
1w#
1\#
0r#
1s#
1O#
1L#
1*"
0'"
0&"
0$"
1>#
0-#
0,#
0+#
1G"
1A"
0F"
03"
1U!
0,!
1+!
1!!
0)
1*
1Q#
1H#
0F#
0B#
1?#
0|!
0y!
1~!
0x
0{
1v
1I#
0G#
0C#
1J#
0D#
#280000
0$
0""
0#"
1"!
19$
08$
01$
10$
1{"
0x"
1}"
1|"
1M!
0N!
0X!
1Y!
1T
0S
0L
1K
0}"
0|"
0~"
1~"
#290000
b11 #
b10 #
0:"
1="
0"!
0=#
05#
02#
01#
1d"
0["
03#
#300000
1$
1""
1#"
1"!
1:$
0;$
0=$
0v#
0w#
0Z#
0[#
0\#
1r#
0u#
0O#
0L#
0("
1'"
1$"
0>#
0I#
0E#
1B#
0?#
1+#
1N"
0A"
04"
0W!
0V!
0U!
1,!
0)!
0}
0~
0!!
1)
0,
0H#
1E#
0B#
1?#
0J#
1|!
1y!
1x
1{
1I#
1F#
1@#
1J#
1G#
1A#
#320000
0$
0""
0#"
0"!
1($
1'$
1&$
1"$
09$
11$
00$
0k#
0j#
0i#
0e#
10#
13#
14#
1<#
0{"
1x"
0?#
0E#
0I#
1>!
1?!
1@!
1D!
0M!
1X!
0Y!
0q!
0r!
0s!
0w!
1k
1j
1i
1e
0T
1L
0K
03
02
01
0-
11#
15#
1=#
1}"
1|"
0@#
0F#
0J#
0~"
0A#
0G#
#340000
1$
1""
1#"
1"!
0:$
1w#
1\#
0t#
1u#
0)"
1("
1&"
0$"
1,#
0+#
0@"
1U!
0*!
1)!
1!!
0+
1,
0Q#
1A"
0~!
0v
#360000
0$
0""
0#"
0"!
19$
18$
07$
01$
1k#
1j#
1i#
1e#
1{"
0x"
0}"
0|"
0!#
1~"
1?#
1E#
1I#
1M!
1N!
0O!
0X!
1q!
1r!
1s!
1w!
1T
1S
0R
0L
13
12
11
1-
1|"
1!#
0~"
1##
1"#
1@#
1F#
0##
0"#
0%#
1$#
1%#
0$#
1'#
1&#
0'#
0&#
0)#
1(#
1)#
0(#
1*#
0*#
#380000
1$
1""
1#"
1"!
1v#
0w#
1[#
0\#
0s#
1t#
0*"
1)"
1$"
0I#
0?#
1+#
0N"
1F"
0A"
13"
1@"
1V!
0U!
0+!
1*!
1~
0!!
0*
1+
0@#
0G"
14"
#400000
0$
0""
0#"
0"!
09$
11$
10$
0/$
0{"
1x"
1B#
1?#
0E#
0M!
1X!
1Y!
0Z!
0T
1L
1K
0J
0|"
1C#
1@#
0F#
#420000
1$
1""
1#"
1"!
1w#
1\#
0r#
1s#
1*"
0'"
0&"
0$"
1>#
1-#
0,#
0+#
1G"
1A"
0F"
03"
1U!
0,!
1+!
1!!
0)
1*
1H#
1E#
0B#
0@#
1I#
0C#
#440000
0$
0""
0#"
0"!
19$
08$
01$
1{"
0x"
1}"
1|"
1M!
0N!
0X!
1T
0S
0L
0}"
0|"
0!#
1~"
1!#
0~"
1##
1"#
0##
0"#
0%#
1$#
1%#
0$#
1'#
1&#
0'#
0&#
0)#
1(#
1)#
0(#
1*#
0*#
#460000
1$
1""
1#"
1"!
0v#
0w#
1Z#
0[#
0\#
1r#
0u#
0("
1'"
1$"
0I#
0E#
1B#
0?#
1+#
1N"
0A"
04"
1W!
0V!
0U!
1,!
0)!
1}
0~
0!!
1)
0,
#480000
0$
0""
0#"
0"!
09$
11$
00$
0{"
1x"
0M!
1X!
0Y!
0T
1L
0K
1}"
1|"
0!#
1~"
1##
1"#
0%#
1$#
1'#
1&#
0)#
1(#
1*#
